{
    "lat": -33.926,
    "lon": 18.422,
    "timezone": "Africa/Johannesburg",
    "timezone_offset": 7200,
    "hourly": [
        {
            "dt": 1641474000,
            "temp": 25.16,
            "feels_like": 25.38,
            "pressure": 1016,
            "humidity": 63,
            "dew_point": 17.62,
            "uvi": 9.34,
            "clouds": 43,
            "visibility": 10000,
            "wind_speed": 7.37,
            "wind_deg": 171,
            "wind_gust": 8.3,
            "weather": [
                {
                    "id": 802,
                    "main": "Clouds",
                    "description": "nubi sparse",
                    "icon": "03d"
                }
            ],
            "pop": 0
        },
        {
            "dt": 1641477600,
            "temp": 24.48,
            "feels_like": 24.65,
            "pressure": 1016,
            "humidity": 64,
            "dew_point": 17.23,
            "uvi": 6.15,
            "clouds": 44,
            "visibility": 10000,
            "wind_speed": 8.18,
            "wind_deg": 168,
            "wind_gust": 9.93,
            "weather": [
                {
                    "id": 802,
                    "main": "Clouds",
                    "description": "nubi sparse",
                    "icon": "03d"
                }
            ],
            "pop": 0
        },
        {
            "dt": 1641481200,
            "temp": 23.66,
            "feels_like": 23.8,
            "pressure": 1015,
            "humidity": 66,
            "dew_point": 16.94,
            "uvi": 3.23,
            "clouds": 39,
            "visibility": 10000,
            "wind_speed": 8.54,
            "wind_deg": 170,
            "wind_gust": 11.02,
            "weather": [
                {
                    "id": 802,
                    "main": "Clouds",
                    "description": "nubi sparse",
                    "icon": "03d"
                }
            ],
            "pop": 0
        },
        {
            "dt": 1641484800,
            "temp": 22.61,
            "feels_like": 22.73,
            "pressure": 1014,
            "humidity": 69,
            "dew_point": 16.64,
            "uvi": 1.28,
            "clouds": 33,
            "visibility": 10000,
            "wind_speed": 8.91,
            "wind_deg": 169,
            "wind_gust": 12.04,
            "weather": [
                {
                    "id": 802,
                    "main": "Clouds",
                    "description": "nubi sparse",
                    "icon": "03d"
                }
            ],
            "pop": 0
        },
        {
            "dt": 1641488400,
            "temp": 21.36,
            "feels_like": 21.43,
            "pressure": 1014,
            "humidity": 72,
            "dew_point": 16.11,
            "uvi": 0.29,
            "clouds": 26,
            "visibility": 10000,
            "wind_speed": 9.06,
            "wind_deg": 166,
            "wind_gust": 13.12,
            "weather": [
                {
                    "id": 802,
                    "main": "Clouds",
                    "description": "nubi sparse",
                    "icon": "03d"
                }
            ],
            "pop": 0
        },
        {
            "dt": 1641492000,
            "temp": 19.87,
            "feels_like": 19.92,
            "pressure": 1014,
            "humidity": 77,
            "dew_point": 15.63,
            "uvi": 0,
            "clouds": 19,
            "visibility": 10000,
            "wind_speed": 8.76,
            "wind_deg": 164,
            "wind_gust": 13.53,
            "weather": [
                {
                    "id": 801,
                    "main": "Clouds",
                    "description": "poche nuvole",
                    "icon": "02d"
                }
            ],
            "pop": 0
        },
        {
            "dt": 1641495600,
            "temp": 19.98,
            "feels_like": 20.04,
            "pressure": 1014,
            "humidity": 77,
            "dew_point": 15.63,
            "uvi": 0,
            "clouds": 22,
            "visibility": 10000,
            "wind_speed": 8.18,
            "wind_deg": 157,
            "wind_gust": 12.79,
            "weather": [
                {
                    "id": 801,
                    "main": "Clouds",
                    "description": "poche nuvole",
                    "icon": "02n"
                }
            ],
            "pop": 0
        },
        {
            "dt": 1641499200,
            "temp": 20.06,
            "feels_like": 20.08,
            "pressure": 1014,
            "humidity": 75,
            "dew_point": 15.45,
            "uvi": 0,
            "clouds": 43,
            "visibility": 10000,
            "wind_speed": 6.95,
            "wind_deg": 151,
            "wind_gust": 10.95,
            "weather": [
                {
                    "id": 802,
                    "main": "Clouds",
                    "description": "nubi sparse",
                    "icon": "03n"
                }
            ],
            "pop": 0
        },
        {
            "dt": 1641502800,
            "temp": 20.05,
            "feels_like": 20.04,
            "pressure": 1014,
            "humidity": 74,
            "dew_point": 15.19,
            "uvi": 0,
            "clouds": 61,
            "visibility": 10000,
            "wind_speed": 6.25,
            "wind_deg": 149,
            "wind_gust": 9.78,
            "weather": [
                {
                    "id": 803,
                    "main": "Clouds",
                    "description": "nubi sparse",
                    "icon": "04n"
                }
            ],
            "pop": 0
        },
        {
            "dt": 1641506400,
            "temp": 20.01,
            "feels_like": 20,
            "pressure": 1014,
            "humidity": 74,
            "dew_point": 15.03,
            "uvi": 0,
            "clouds": 71,
            "visibility": 10000,
            "wind_speed": 5.61,
            "wind_deg": 147,
            "wind_gust": 8.44,
            "weather": [
                {
                    "id": 803,
                    "main": "Clouds",
                    "description": "nubi sparse",
                    "icon": "04n"
                }
            ],
            "pop": 0
        },
        {
            "dt": 1641510000,
            "temp": 19.77,
            "feels_like": 19.76,
            "pressure": 1014,
            "humidity": 75,
            "dew_point": 15.16,
            "uvi": 0,
            "clouds": 77,
            "visibility": 10000,
            "wind_speed": 4.88,
            "wind_deg": 143,
            "wind_gust": 7.37,
            "weather": [
                {
                    "id": 803,
                    "main": "Clouds",
                    "description": "nubi sparse",
                    "icon": "04n"
                }
            ],
            "pop": 0
        },
        {
            "dt": 1641513600,
            "temp": 19.56,
            "feels_like": 19.58,
            "pressure": 1013,
            "humidity": 77,
            "dew_point": 15.35,
            "uvi": 0,
            "clouds": 81,
            "visibility": 10000,
            "wind_speed": 4.28,
            "wind_deg": 142,
            "wind_gust": 6.43,
            "weather": [
                {
                    "id": 803,
                    "main": "Clouds",
                    "description": "nubi sparse",
                    "icon": "04n"
                }
            ],
            "pop": 0
        },
        {
            "dt": 1641517200,
            "temp": 19.25,
            "feels_like": 19.32,
            "pressure": 1013,
            "humidity": 80,
            "dew_point": 15.54,
            "uvi": 0,
            "clouds": 99,
            "visibility": 10000,
            "wind_speed": 3.98,
            "wind_deg": 143,
            "wind_gust": 5.65,
            "weather": [
                {
                    "id": 804,
                    "main": "Clouds",
                    "description": "cielo coperto",
                    "icon": "04n"
                }
            ],
            "pop": 0
        },
        {
            "dt": 1641520800,
            "temp": 18.9,
            "feels_like": 18.99,
            "pressure": 1012,
            "humidity": 82,
            "dew_point": 15.73,
            "uvi": 0,
            "clouds": 66,
            "visibility": 10000,
            "wind_speed": 3.79,
            "wind_deg": 142,
            "wind_gust": 5.26,
            "weather": [
                {
                    "id": 803,
                    "main": "Clouds",
                    "description": "nubi sparse",
                    "icon": "04n"
                }
            ],
            "pop": 0
        },
        {
            "dt": 1641524400,
            "temp": 18.74,
            "feels_like": 18.84,
            "pressure": 1013,
            "humidity": 83,
            "dew_point": 15.75,
            "uvi": 0,
            "clouds": 50,
            "visibility": 10000,
            "wind_speed": 3.75,
            "wind_deg": 137,
            "wind_gust": 5.23,
            "weather": [
                {
                    "id": 802,
                    "main": "Clouds",
                    "description": "nubi sparse",
                    "icon": "03n"
                }
            ],
            "pop": 0
        },
        {
            "dt": 1641528000,
            "temp": 18.63,
            "feels_like": 18.74,
            "pressure": 1013,
            "humidity": 84,
            "dew_point": 15.75,
            "uvi": 0,
            "clouds": 59,
            "visibility": 10000,
            "wind_speed": 3.44,
            "wind_deg": 138,
            "wind_gust": 4.77,
            "weather": [
                {
                    "id": 803,
                    "main": "Clouds",
                    "description": "nubi sparse",
                    "icon": "04d"
                }
            ],
            "pop": 0
        },
        {
            "dt": 1641531600,
            "temp": 19.35,
            "feels_like": 19.43,
            "pressure": 1014,
            "humidity": 80,
            "dew_point": 15.76,
            "uvi": 0.57,
            "clouds": 49,
            "visibility": 10000,
            "wind_speed": 3.79,
            "wind_deg": 139,
            "wind_gust": 5.33,
            "weather": [
                {
                    "id": 802,
                    "main": "Clouds",
                    "description": "nubi sparse",
                    "icon": "03d"
                }
            ],
            "pop": 0
        },
        {
            "dt": 1641535200,
            "temp": 20.59,
            "feels_like": 20.61,
            "pressure": 1014,
            "humidity": 73,
            "dew_point": 15.49,
            "uvi": 1.97,
            "clouds": 49,
            "visibility": 10000,
            "wind_speed": 3.87,
            "wind_deg": 136,
            "wind_gust": 5.21,
            "weather": [
                {
                    "id": 802,
                    "main": "Clouds",
                    "description": "nubi sparse",
                    "icon": "03d"
                }
            ],
            "pop": 0
        },
        {
            "dt": 1641538800,
            "temp": 22,
            "feels_like": 21.98,
            "pressure": 1014,
            "humidity": 66,
            "dew_point": 15.2,
            "uvi": 4.52,
            "clouds": 46,
            "visibility": 10000,
            "wind_speed": 3.5,
            "wind_deg": 136,
            "wind_gust": 4.39,
            "weather": [
                {
                    "id": 802,
                    "main": "Clouds",
                    "description": "nubi sparse",
                    "icon": "03d"
                }
            ],
            "pop": 0
        },
        {
            "dt": 1641542400,
            "temp": 23.52,
            "feels_like": 23.49,
            "pressure": 1014,
            "humidity": 60,
            "dew_point": 15.04,
            "uvi": 7.8,
            "clouds": 25,
            "visibility": 10000,
            "wind_speed": 3.39,
            "wind_deg": 148,
            "wind_gust": 3.9,
            "weather": [
                {
                    "id": 802,
                    "main": "Clouds",
                    "description": "nubi sparse",
                    "icon": "03d"
                }
            ],
            "pop": 0
        },
        {
            "dt": 1641546000,
            "temp": 24.85,
            "feels_like": 24.85,
            "pressure": 1013,
            "humidity": 56,
            "dew_point": 15.06,
            "uvi": 11.02,
            "clouds": 19,
            "visibility": 10000,
            "wind_speed": 3.35,
            "wind_deg": 166,
            "wind_gust": 3.76,
            "weather": [
                {
                    "id": 801,
                    "main": "Clouds",
                    "description": "poche nuvole",
                    "icon": "02d"
                }
            ],
            "pop": 0
        },
        {
            "dt": 1641549600,
            "temp": 25.85,
            "feels_like": 25.9,
            "pressure": 1013,
            "humidity": 54,
            "dew_point": 15.22,
            "uvi": 13.17,
            "clouds": 16,
            "visibility": 10000,
            "wind_speed": 3.74,
            "wind_deg": 182,
            "wind_gust": 4.14,
            "weather": [
                {
                    "id": 801,
                    "main": "Clouds",
                    "description": "poche nuvole",
                    "icon": "02d"
                }
            ],
            "pop": 0
        },
        {
            "dt": 1641553200,
            "temp": 26.75,
            "feels_like": 27.3,
            "pressure": 1012,
            "humidity": 52,
            "dew_point": 15.48,
            "uvi": 13.71,
            "clouds": 13,
            "visibility": 10000,
            "wind_speed": 4.52,
            "wind_deg": 182,
            "wind_gust": 4.9,
            "weather": [
                {
                    "id": 801,
                    "main": "Clouds",
                    "description": "poche nuvole",
                    "icon": "02d"
                }
            ],
            "pop": 0
        },
        {
            "dt": 1641556800,
            "temp": 27.28,
            "feels_like": 27.83,
            "pressure": 1012,
            "humidity": 52,
            "dew_point": 15.86,
            "uvi": 12.45,
            "clouds": 12,
            "visibility": 10000,
            "wind_speed": 5.48,
            "wind_deg": 179,
            "wind_gust": 5.96,
            "weather": [
                {
                    "id": 801,
                    "main": "Clouds",
                    "description": "poche nuvole",
                    "icon": "02d"
                }
            ],
            "pop": 0
        },
        {
            "dt": 1641560400,
            "temp": 27.52,
            "feels_like": 28.09,
            "pressure": 1011,
            "humidity": 52,
            "dew_point": 16.17,
            "uvi": 9.73,
            "clouds": 1,
            "visibility": 10000,
            "wind_speed": 6.23,
            "wind_deg": 175,
            "wind_gust": 7.35,
            "weather": [
                {
                    "id": 800,
                    "main": "Clear",
                    "description": "cielo sereno",
                    "icon": "01d"
                }
            ],
            "pop": 0
        },
        {
            "dt": 1641564000,
            "temp": 27.56,
            "feels_like": 28.21,
            "pressure": 1010,
            "humidity": 53,
            "dew_point": 16.44,
            "uvi": 6.4,
            "clouds": 1,
            "visibility": 10000,
            "wind_speed": 6.72,
            "wind_deg": 170,
            "wind_gust": 8.63,
            "weather": [
                {
                    "id": 800,
                    "main": "Clear",
                    "description": "cielo sereno",
                    "icon": "01d"
                }
            ],
            "pop": 0
        },
        {
            "dt": 1641567600,
            "temp": 26.88,
            "feels_like": 27.67,
            "pressure": 1010,
            "humidity": 56,
            "dew_point": 16.75,
            "uvi": 3.36,
            "clouds": 1,
            "visibility": 10000,
            "wind_speed": 6.91,
            "wind_deg": 168,
            "wind_gust": 9.27,
            "weather": [
                {
                    "id": 800,
                    "main": "Clear",
                    "description": "cielo sereno",
                    "icon": "01d"
                }
            ],
            "pop": 0
        },
        {
            "dt": 1641571200,
            "temp": 26.18,
            "feels_like": 26.18,
            "pressure": 1010,
            "humidity": 58,
            "dew_point": 16.87,
            "uvi": 1.29,
            "clouds": 0,
            "visibility": 10000,
            "wind_speed": 6.41,
            "wind_deg": 162,
            "wind_gust": 8.57,
            "weather": [
                {
                    "id": 800,
                    "main": "Clear",
                    "description": "cielo sereno",
                    "icon": "01d"
                }
            ],
            "pop": 0
        },
        {
            "dt": 1641574800,
            "temp": 25.38,
            "feels_like": 25.57,
            "pressure": 1011,
            "humidity": 61,
            "dew_point": 16.9,
            "uvi": 0.29,
            "clouds": 0,
            "visibility": 10000,
            "wind_speed": 6.31,
            "wind_deg": 151,
            "wind_gust": 8.5,
            "weather": [
                {
                    "id": 800,
                    "main": "Clear",
                    "description": "cielo sereno",
                    "icon": "01d"
                }
            ],
            "pop": 0
        },
        {
            "dt": 1641578400,
            "temp": 24.1,
            "feels_like": 24.26,
            "pressure": 1011,
            "humidity": 65,
            "dew_point": 16.92,
            "uvi": 0,
            "clouds": 0,
            "visibility": 10000,
            "wind_speed": 5.38,
            "wind_deg": 142,
            "wind_gust": 7.38,
            "weather": [
                {
                    "id": 800,
                    "main": "Clear",
                    "description": "cielo sereno",
                    "icon": "01d"
                }
            ],
            "pop": 0
        },
        {
            "dt": 1641582000,
            "temp": 23.26,
            "feels_like": 23.42,
            "pressure": 1011,
            "humidity": 68,
            "dew_point": 16.94,
            "uvi": 0,
            "clouds": 0,
            "visibility": 10000,
            "wind_speed": 4.88,
            "wind_deg": 133,
            "wind_gust": 6.74,
            "weather": [
                {
                    "id": 800,
                    "main": "Clear",
                    "description": "cielo sereno",
                    "icon": "01n"
                }
            ],
            "pop": 0
        },
        {
            "dt": 1641585600,
            "temp": 22.63,
            "feels_like": 22.8,
            "pressure": 1012,
            "humidity": 71,
            "dew_point": 16.95,
            "uvi": 0,
            "clouds": 0,
            "visibility": 10000,
            "wind_speed": 4.79,
            "wind_deg": 131,
            "wind_gust": 6.52,
            "weather": [
                {
                    "id": 800,
                    "main": "Clear",
                    "description": "cielo sereno",
                    "icon": "01n"
                }
            ],
            "pop": 0
        },
        {
            "dt": 1641589200,
            "temp": 22.01,
            "feels_like": 22.2,
            "pressure": 1011,
            "humidity": 74,
            "dew_point": 16.97,
            "uvi": 0,
            "clouds": 0,
            "visibility": 10000,
            "wind_speed": 4.8,
            "wind_deg": 133,
            "wind_gust": 6.73,
            "weather": [
                {
                    "id": 800,
                    "main": "Clear",
                    "description": "cielo sereno",
                    "icon": "01n"
                }
            ],
            "pop": 0
        },
        {
            "dt": 1641592800,
            "temp": 21.49,
            "feels_like": 21.68,
            "pressure": 1011,
            "humidity": 76,
            "dew_point": 16.89,
            "uvi": 0,
            "clouds": 0,
            "visibility": 10000,
            "wind_speed": 4.23,
            "wind_deg": 130,
            "wind_gust": 5.91,
            "weather": [
                {
                    "id": 800,
                    "main": "Clear",
                    "description": "cielo sereno",
                    "icon": "01n"
                }
            ],
            "pop": 0
        },
        {
            "dt": 1641596400,
            "temp": 21.12,
            "feels_like": 21.3,
            "pressure": 1011,
            "humidity": 77,
            "dew_point": 16.76,
            "uvi": 0,
            "clouds": 0,
            "visibility": 10000,
            "wind_speed": 3.87,
            "wind_deg": 127,
            "wind_gust": 5.31,
            "weather": [
                {
                    "id": 800,
                    "main": "Clear",
                    "description": "cielo sereno",
                    "icon": "01n"
                }
            ],
            "pop": 0
        },
        {
            "dt": 1641600000,
            "temp": 20.86,
            "feels_like": 21.04,
            "pressure": 1010,
            "humidity": 78,
            "dew_point": 16.65,
            "uvi": 0,
            "clouds": 0,
            "visibility": 10000,
            "wind_speed": 3.54,
            "wind_deg": 120,
            "wind_gust": 4.71,
            "weather": [
                {
                    "id": 800,
                    "main": "Clear",
                    "description": "cielo sereno",
                    "icon": "01n"
                }
            ],
            "pop": 0
        },
        {
            "dt": 1641603600,
            "temp": 20.65,
            "feels_like": 20.83,
            "pressure": 1010,
            "humidity": 79,
            "dew_point": 16.63,
            "uvi": 0,
            "clouds": 0,
            "visibility": 10000,
            "wind_speed": 3.04,
            "wind_deg": 123,
            "wind_gust": 3.74,
            "weather": [
                {
                    "id": 800,
                    "main": "Clear",
                    "description": "cielo sereno",
                    "icon": "01n"
                }
            ],
            "pop": 0
        },
        {
            "dt": 1641607200,
            "temp": 20.45,
            "feels_like": 20.61,
            "pressure": 1009,
            "humidity": 79,
            "dew_point": 16.59,
            "uvi": 0,
            "clouds": 0,
            "visibility": 10000,
            "wind_speed": 2.82,
            "wind_deg": 121,
            "wind_gust": 3.33,
            "weather": [
                {
                    "id": 800,
                    "main": "Clear",
                    "description": "cielo sereno",
                    "icon": "01n"
                }
            ],
            "pop": 0
        },
        {
            "dt": 1641610800,
            "temp": 20.32,
            "feels_like": 20.5,
            "pressure": 1010,
            "humidity": 80,
            "dew_point": 16.59,
            "uvi": 0,
            "clouds": 0,
            "visibility": 10000,
            "wind_speed": 2.44,
            "wind_deg": 120,
            "wind_gust": 2.8,
            "weather": [
                {
                    "id": 800,
                    "main": "Clear",
                    "description": "cielo sereno",
                    "icon": "01n"
                }
            ],
            "pop": 0
        },
        {
            "dt": 1641614400,
            "temp": 20.27,
            "feels_like": 20.44,
            "pressure": 1010,
            "humidity": 80,
            "dew_point": 16.58,
            "uvi": 0,
            "clouds": 0,
            "visibility": 10000,
            "wind_speed": 2.33,
            "wind_deg": 119,
            "wind_gust": 2.71,
            "weather": [
                {
                    "id": 800,
                    "main": "Clear",
                    "description": "cielo sereno",
                    "icon": "01d"
                }
            ],
            "pop": 0
        },
        {
            "dt": 1641618000,
            "temp": 21.11,
            "feels_like": 21.26,
            "pressure": 1011,
            "humidity": 76,
            "dew_point": 16.59,
            "uvi": 0.58,
            "clouds": 0,
            "visibility": 10000,
            "wind_speed": 2.1,
            "wind_deg": 116,
            "wind_gust": 2.63,
            "weather": [
                {
                    "id": 800,
                    "main": "Clear",
                    "description": "cielo sereno",
                    "icon": "01d"
                }
            ],
            "pop": 0
        },
        {
            "dt": 1641621600,
            "temp": 22.61,
            "feels_like": 22.75,
            "pressure": 1011,
            "humidity": 70,
            "dew_point": 16.61,
            "uvi": 2,
            "clouds": 0,
            "visibility": 10000,
            "wind_speed": 1.84,
            "wind_deg": 118,
            "wind_gust": 2.13,
            "weather": [
                {
                    "id": 800,
                    "main": "Clear",
                    "description": "cielo sereno",
                    "icon": "01d"
                }
            ],
            "pop": 0
        },
        {
            "dt": 1641625200,
            "temp": 24.37,
            "feels_like": 24.53,
            "pressure": 1011,
            "humidity": 64,
            "dew_point": 16.65,
            "uvi": 4.52,
            "clouds": 0,
            "visibility": 10000,
            "wind_speed": 1.16,
            "wind_deg": 136,
            "wind_gust": 1.27,
            "weather": [
                {
                    "id": 800,
                    "main": "Clear",
                    "description": "cielo sereno",
                    "icon": "01d"
                }
            ],
            "pop": 0
        },
        {
            "dt": 1641628800,
            "temp": 26.05,
            "feels_like": 26.05,
            "pressure": 1011,
            "humidity": 58,
            "dew_point": 16.68,
            "uvi": 7.81,
            "clouds": 0,
            "visibility": 10000,
            "wind_speed": 1.56,
            "wind_deg": 190,
            "wind_gust": 1.25,
            "weather": [
                {
                    "id": 800,
                    "main": "Clear",
                    "description": "cielo sereno",
                    "icon": "01d"
                }
            ],
            "pop": 0
        },
        {
            "dt": 1641632400,
            "temp": 27.08,
            "feels_like": 27.89,
            "pressure": 1010,
            "humidity": 56,
            "dew_point": 16.8,
            "uvi": 11.04,
            "clouds": 0,
            "visibility": 10000,
            "wind_speed": 2.53,
            "wind_deg": 206,
            "wind_gust": 1.94,
            "weather": [
                {
                    "id": 800,
                    "main": "Clear",
                    "description": "cielo sereno",
                    "icon": "01d"
                }
            ],
            "pop": 0
        },
        {
            "dt": 1641636000,
            "temp": 27.7,
            "feels_like": 28.55,
            "pressure": 1010,
            "humidity": 55,
            "dew_point": 17,
            "uvi": 13.31,
            "clouds": 0,
            "visibility": 10000,
            "wind_speed": 2.95,
            "wind_deg": 217,
            "wind_gust": 2.23,
            "weather": [
                {
                    "id": 800,
                    "main": "Clear",
                    "description": "cielo sereno",
                    "icon": "01d"
                }
            ],
            "pop": 0
        },
        {
            "dt": 1641639600,
            "temp": 28.18,
            "feels_like": 29.05,
            "pressure": 1010,
            "humidity": 54,
            "dew_point": 17.1,
            "uvi": 13.86,
            "clouds": 0,
            "visibility": 10000,
            "wind_speed": 3.79,
            "wind_deg": 209,
            "wind_gust": 3.3,
            "weather": [
                {
                    "id": 800,
                    "main": "Clear",
                    "description": "cielo sereno",
                    "icon": "01d"
                }
            ],
            "pop": 0
        },
        {
            "dt": 1641643200,
            "temp": 28.32,
            "feels_like": 29.23,
            "pressure": 1009,
            "humidity": 54,
            "dew_point": 17.29,
            "uvi": 12.59,
            "clouds": 1,
            "visibility": 10000,
            "wind_speed": 3.91,
            "wind_deg": 208,
            "wind_gust": 4.12,
            "weather": [
                {
                    "id": 800,
                    "main": "Clear",
                    "description": "cielo sereno",
                    "icon": "01d"
                }
            ],
            "pop": 0
        }
    ],
    "daily": [
        {
            "dt": 1641463200,
            "sunrise": 1641440556,
            "sunset": 1641492067,
            "moonrise": 1641454500,
            "moonset": 1641503640,
            "moon_phase": 0.14,
            "temp": {
                "day": 23.9,
                "min": 17.57,
                "max": 25.16,
                "night": 20.05,
                "eve": 22.61,
                "morn": 17.59
            },
            "feels_like": {
                "day": 23.91,
                "night": 20.04,
                "eve": 22.73,
                "morn": 17.36
            },
            "pressure": 1015,
            "humidity": 60,
            "dew_point": 15.67,
            "wind_speed": 9.06,
            "wind_deg": 166,
            "wind_gust": 13.53,
            "weather": [
                {
                    "id": 802,
                    "main": "Clouds",
                    "description": "nubi sparse",
                    "icon": "03d"
                }
            ],
            "clouds": 42,
            "pop": 0,
            "uvi": 12.84
        },
        {
            "dt": 1641549600,
            "sunrise": 1641527007,
            "sunset": 1641578468,
            "moonrise": 1641544800,
            "moonset": 1641591840,
            "moon_phase": 0.17,
            "temp": {
                "day": 25.85,
                "min": 18.63,
                "max": 27.56,
                "night": 22.01,
                "eve": 26.18,
                "morn": 18.63
            },
            "feels_like": {
                "day": 25.9,
                "night": 22.2,
                "eve": 26.18,
                "morn": 18.74
            },
            "pressure": 1013,
            "humidity": 54,
            "dew_point": 15.22,
            "wind_speed": 6.91,
            "wind_deg": 168,
            "wind_gust": 9.27,
            "weather": [
                {
                    "id": 801,
                    "main": "Clouds",
                    "description": "poche nuvole",
                    "icon": "02d"
                }
            ],
            "clouds": 16,
            "pop": 0,
            "uvi": 13.71
        },
        {
            "dt": 1641636000,
            "sunrise": 1641613458,
            "sunset": 1641664868,
            "moonrise": 1641634980,
            "moonset": 0,
            "moon_phase": 0.21,
            "temp": {
                "day": 27.7,
                "min": 20.27,
                "max": 28.32,
                "night": 24.53,
                "eve": 26.75,
                "morn": 20.27
            },
            "feels_like": {
                "day": 28.55,
                "night": 24.81,
                "eve": 27.77,
                "morn": 20.44
            },
            "pressure": 1010,
            "humidity": 55,
            "dew_point": 17,
            "wind_speed": 4.41,
            "wind_deg": 170,
            "wind_gust": 6.27,
            "weather": [
                {
                    "id": 800,
                    "main": "Clear",
                    "description": "cielo sereno",
                    "icon": "01d"
                }
            ],
            "clouds": 0,
            "pop": 0,
            "uvi": 13.86
        },
        {
            "dt": 1641722400,
            "sunrise": 1641699910,
            "sunset": 1641751265,
            "moonrise": 1641724860,
            "moonset": 1641679920,
            "moon_phase": 0.25,
            "temp": {
                "day": 24.96,
                "min": 20.85,
                "max": 24.96,
                "night": 21.68,
                "eve": 24.83,
                "morn": 20.85
            },
            "feels_like": {
                "day": 25.18,
                "night": 22.02,
                "eve": 25.07,
                "morn": 21.11
            },
            "pressure": 1008,
            "humidity": 64,
            "dew_point": 16.79,
            "wind_speed": 4.91,
            "wind_deg": 342,
            "wind_gust": 7.46,
            "weather": [
                {
                    "id": 500,
                    "main": "Rain",
                    "description": "pioggia leggera",
                    "icon": "10d"
                }
            ],
            "clouds": 1,
            "pop": 1,
            "rain": 0.97,
            "uvi": 13.59
        },
        {
            "dt": 1641808800,
            "sunrise": 1641786363,
            "sunset": 1641837661,
            "moonrise": 1641814740,
            "moonset": 1641767880,
            "moon_phase": 0.27,
            "temp": {
                "day": 21.33,
                "min": 18.71,
                "max": 22.56,
                "night": 20.47,
                "eve": 22.23,
                "morn": 19.05
            },
            "feels_like": {
                "day": 21.42,
                "night": 20.45,
                "eve": 22.18,
                "morn": 19.41
            },
            "pressure": 1009,
            "humidity": 73,
            "dew_point": 15.98,
            "wind_speed": 5.58,
            "wind_deg": 309,
            "wind_gust": 8.16,
            "weather": [
                {
                    "id": 501,
                    "main": "Rain",
                    "description": "pioggia moderata",
                    "icon": "10d"
                }
            ],
            "clouds": 61,
            "pop": 1,
            "rain": 7.55,
            "uvi": 9.66
        },
        {
            "dt": 1641895200,
            "sunrise": 1641872817,
            "sunset": 1641924055,
            "moonrise": 1641904560,
            "moonset": 1641855900,
            "moon_phase": 0.3,
            "temp": {
                "day": 21.43,
                "min": 19.17,
                "max": 21.68,
                "night": 19.17,
                "eve": 20.97,
                "morn": 19.47
            },
            "feels_like": {
                "day": 21.48,
                "night": 19.1,
                "eve": 20.95,
                "morn": 19.51
            },
            "pressure": 1011,
            "humidity": 71,
            "dew_point": 15.63,
            "wind_speed": 6.41,
            "wind_deg": 306,
            "wind_gust": 10.27,
            "weather": [
                {
                    "id": 500,
                    "main": "Rain",
                    "description": "pioggia leggera",
                    "icon": "10d"
                }
            ],
            "clouds": 68,
            "pop": 0.37,
            "rain": 1.53,
            "uvi": 10
        },
        {
            "dt": 1641981600,
            "sunrise": 1641959272,
            "sunset": 1642010447,
            "moonrise": 1641994440,
            "moonset": 1641944040,
            "moon_phase": 0.33,
            "temp": {
                "day": 19.97,
                "min": 17.55,
                "max": 20.64,
                "night": 17.55,
                "eve": 19.77,
                "morn": 17.86
            },
            "feels_like": {
                "day": 19.75,
                "night": 17.19,
                "eve": 19.34,
                "morn": 17.76
            },
            "pressure": 1020,
            "humidity": 66,
            "dew_point": 13.26,
            "wind_speed": 9.13,
            "wind_deg": 160,
            "wind_gust": 13.54,
            "weather": [
                {
                    "id": 500,
                    "main": "Rain",
                    "description": "pioggia leggera",
                    "icon": "10d"
                }
            ],
            "clouds": 28,
            "pop": 0.4,
            "rain": 0.22,
            "uvi": 10
        },
        {
            "dt": 1642068000,
            "sunrise": 1642045728,
            "sunset": 1642096837,
            "moonrise": 1642084260,
            "moonset": 1642032300,
            "moon_phase": 0.36,
            "temp": {
                "day": 22.83,
                "min": 16.42,
                "max": 25.69,
                "night": 19.91,
                "eve": 25.47,
                "morn": 16.42
            },
            "feels_like": {
                "day": 22.34,
                "night": 19.68,
                "eve": 25.27,
                "morn": 16.08
            },
            "pressure": 1019,
            "humidity": 45,
            "dew_point": 9.72,
            "wind_speed": 8.07,
            "wind_deg": 158,
            "wind_gust": 11.23,
            "weather": [
                {
                    "id": 800,
                    "main": "Clear",
                    "description": "cielo sereno",
                    "icon": "01d"
                }
            ],
            "clouds": 0,
            "pop": 0,
            "uvi": 10
        }
    ]
}